<svg width="32" height="32" viewBox="0 0 32 32" fill="none" xmlns="http://www.w3.org/2000/svg">
<path d="M1.33358 14.7253C1.32958 15.0799 1.46825 15.4199 1.71625 15.6706L16.3189 30.2706C16.8389 30.7906 17.6802 30.7879 18.2016 30.2679L30.2722 18.1986C30.7936 17.6773 30.7936 16.8333 30.2722 16.3133L15.6736 1.71594C15.4229 1.46794 15.0829 1.32928 14.7282 1.33328L6.72425 1.36661C6.36958 1.36661 6.02825 1.50661 5.77625 1.75728L1.75758 5.77461C1.50691 6.02794 1.36558 6.36928 1.36691 6.72394L1.33358 14.7253ZM7.26025 4.03194L14.1696 4.00261L27.4536 17.2719L17.2882 27.4359L4.00425 14.1546L4.03225 7.25994L7.26025 4.03194ZM10.6149 8.63994C10.6149 9.73061 9.73091 10.6133 8.64025 10.6133C7.55091 10.6133 6.66691 9.73061 6.66691 8.63994C6.66691 7.55061 7.55091 6.66661 8.64025 6.66661C9.73091 6.66661 10.6149 7.55061 10.6149 8.63994Z" fill="#111820"/>
</svg>
